{
  "default": {
    "port": 8780,
    "NODE_ENV": "production",
    "logFileName": "server.logs",
    "pidFileName": "server.pid",
    "authFailsLimit": 5,
    "sessionTimeout": 60,
    "uploadsDir": "uploads"
  },
  "custom": {}
}